AHB2APB_Brdg_MS2_Class/tb_class_top_latest.vcd
$date
	Wed Feb 18 16:51:06 2026
$end

$version
	Synopsys VCS version L-2016.06-SP2_Full64
$end

$timescale
	1ps
$end

$comment Csum: 1 014e13c294c4fccc $end


$scope module ahb_apb_top $end
$var reg 1 ! Hclk $end
$var reg 1 " Pclk $end
$var reg 1 # resetn $end

$scope begin unnamed$$_vcs_3 $end
$upscope $end


$scope begin unnamed$$_vcs_0 $end
$upscope $end


$scope begin unnamed$$_vcs_1 $end
$upscope $end


$scope begin unnamed$$_vcs_2 $end
$upscope $end


$scope begin unnamed$$_vcs_4 $end
$upscope $end


$scope begin unnamed$$_vcs_5 $end
$upscope $end


$scope begin unnamed$$_vcs_6 $end
$upscope $end


$scope module bfm $end
$var wire 1 $ clk $end
$var reg 1 % Hwrite $end
$var reg 1 & Hreadyin $end
$var reg 2 ' Htrans [1:0] $end
$var reg 32 ( Hwdata [31:0] $end
$var reg 32 ) Haddr [31:0] $end
$var reg 32 * Hrdata [31:0] $end
$var reg 2 + Hresp [1:0] $end
$var reg 1 , Hreadyout $end
$var wire 1 - Penable $end
$var wire 1 . Pwrite $end
$var wire 3 / Pselx [2:0] $end
$var wire 32 0 Pwdata [31:0] $end
$var wire 32 1 Paddr [31:0] $end
$var reg 32 2 Prdata [31:0] $end
$var wire 1 3 resetn $end
$upscope $end


$scope module dut $end
$var wire 1 4 Hclk $end
$var wire 1 5 Pclk $end
$var wire 1 6 Hresetn $end
$var wire 1 7 Hwrite $end
$var wire 1 8 Hreadyin $end
$var wire 32 9 Hwdata [31:0] $end
$var wire 32 : Haddr [31:0] $end
$var wire 32 ; Prdata [31:0] $end
$var wire 2 < Htrans [1:0] $end
$var wire 1 - Penable $end
$var wire 1 . Pwrite $end
$var wire 1 = Hreadyout $end
$var wire 2 > Hresp [1:0] $end
$var wire 3 / Pselx [2:0] $end
$var wire 32 1 Paddr [31:0] $end
$var wire 32 0 Pwdata [31:0] $end
$var wire 32 ? Hrdata [31:0] $end
$var wire 1 @ valid $end
$var wire 32 A Haddr1 [31:0] $end
$var wire 32 B Haddr2 [31:0] $end
$var wire 32 C Hwdata1 [31:0] $end
$var wire 32 D Hwdata2 [31:0] $end
$var wire 1 E Hwritereg $end
$var wire 3 F tempselx [2:0] $end
$var wire 32 G Prdata_hclk [31:0] $end
$var wire 1 H Penable_hclk $end
$var wire 1 I Pwrite_hclk $end
$var wire 3 J Pselx_hclk [2:0] $end
$var wire 32 K Paddr_hclk [31:0] $end
$var wire 32 L Pwdata_hclk [31:0] $end

$scope module AHBSlave $end
$var wire 1 4 Hclk $end
$var wire 1 6 Hresetn $end
$var wire 1 7 Hwrite $end
$var wire 1 8 Hreadyin $end
$var wire 2 < Htrans [1:0] $end
$var wire 32 : Haddr [31:0] $end
$var wire 32 9 Hwdata [31:0] $end
$var wire 32 G Prdata [31:0] $end
$var reg 1 M valid $end
$var reg 32 N Haddr1 [31:0] $end
$var reg 32 O Haddr2 [31:0] $end
$var reg 32 P Hwdata1 [31:0] $end
$var reg 32 Q Hwdata2 [31:0] $end
$var wire 32 ? Hrdata [31:0] $end
$var reg 1 R Hwritereg $end
$var reg 3 S tempselx [2:0] $end
$var wire 2 > Hresp [1:0] $end
$upscope $end


$scope module APBControl $end
$var reg 3 T PRESENT_STATE [2:0] $end
$var reg 1 U Penable_temp $end
$var wire 1 4 Hclk $end
$var wire 1 6 Hresetn $end
$var wire 1 @ valid $end
$var wire 1 7 Hwrite $end
$var wire 1 E Hwritereg $end
$var wire 32 9 Hwdata [31:0] $end
$var wire 32 : Haddr [31:0] $end
$var wire 32 A Haddr1 [31:0] $end
$var wire 32 B Haddr2 [31:0] $end
$var wire 32 C Hwdata1 [31:0] $end
$var wire 32 D Hwdata2 [31:0] $end
$var wire 32 G Prdata [31:0] $end
$var wire 3 F tempselx [2:0] $end
$var reg 1 V Pwrite $end
$var reg 1 W Penable $end
$var reg 1 X Hreadyout $end
$var reg 3 Y Pselx [2:0] $end
$var reg 32 Z Paddr [31:0] $end
$var reg 32 [ Pwdata [31:0] $end
$var reg 3 \ NEXT_STATE [2:0] $end
$var reg 1 ] Hreadyout_temp $end
$var reg 1 ^ Pwrite_temp $end
$var reg 3 _ Pselx_temp [2:0] $end
$var reg 32 ` Paddr_temp [31:0] $end
$var reg 32 a Pwdata_temp [31:0] $end

$scope begin PRESENT_STATE_LOGIC $end
$upscope $end


$scope begin NEXT_STATE_LOGIC $end
$upscope $end


$scope begin OUTPUT_COMBINATIONAL_LOGIC $end

$scope begin IDLE_TO_READ $end
$upscope $end


$scope begin IDLE_TO_WWAIT $end
$upscope $end


$scope begin IDLE_TO_IDLE $end
$upscope $end


$scope begin WAIT_TO_WRITE $end
$upscope $end


$scope begin WAIT_TO_WRITEP $end
$upscope $end


$scope begin READ_TO_RENABLE $end
$upscope $end


$scope begin WRITE_TO_WENABLE $end
$upscope $end


$scope begin WRITE_TO_WENABLEP $end
$upscope $end


$scope begin WRITEP_TO_WENABLEP $end
$upscope $end


$scope begin RENABLE_TO_READ $end
$upscope $end


$scope begin RENABLE_TO_WWAIT $end
$upscope $end


$scope begin RENABLE_TO_IDLE $end
$upscope $end


$scope begin WENABLEP_TO_WRITEP $end
$upscope $end


$scope begin WENABLEP_TO_WRITE_OR_READ $end
$upscope $end


$scope begin WENABLE_TO_IDLE $end
$upscope $end


$scope begin WENABLE_TO_WAIT_OR_READ $end
$upscope $end

$upscope $end

$upscope $end


$scope module CDC $end
$var wire 1 4 Hclk $end
$var wire 1 5 Pclk $end
$var wire 1 6 Hresetn $end
$var wire 1 H Penable_hclk $end
$var wire 1 I Pwrite_hclk $end
$var wire 3 J Pselx_hclk [2:0] $end
$var wire 32 K Paddr_hclk [31:0] $end
$var wire 32 L Pwdata_hclk [31:0] $end
$var wire 1 - Penable_pclk $end
$var wire 1 . Pwrite_pclk $end
$var wire 3 / Pselx_pclk [2:0] $end
$var wire 32 1 Paddr_pclk [31:0] $end
$var wire 32 0 Pwdata_pclk [31:0] $end
$var wire 32 ; Prdata_pclk [31:0] $end
$var wire 32 G Prdata_hclk [31:0] $end
$var reg 1 b Penable_sync1 $end
$var reg 1 c Penable_sync2 $end
$var reg 1 d Penable_sync3 $end
$var reg 1 e Pwrite_sync1 $end
$var reg 1 f Pwrite_sync2 $end
$var reg 3 g Pselx_sync1 [2:0] $end
$var reg 3 h Pselx_sync2 [2:0] $end
$var reg 32 i Paddr_sync1 [31:0] $end
$var reg 32 j Paddr_sync2 [31:0] $end
$var reg 32 k Pwdata_sync1 [31:0] $end
$var reg 32 l Pwdata_sync2 [31:0] $end
$var reg 32 m Prdata_sync1 [31:0] $end
$var reg 32 n Prdata_sync2 [31:0] $end
$upscope $end

$upscope $end

$upscope $end

$enddefinitions $end

#0
$dumpvars
0!
0"
0#
b00000000000000000000000000000000 2
b00 +
bxxxxxxxxxxxxxxxxxxxxxxxxxxxxxxxx *
b00000000000000000000000000000000 )
b00000000000000000000000000000000 (
b00 '
xR
0M
xX
xW
xV
x]
xE
xH
xb
xc
xd
xU
xI
xe
xf
x^
0@
bxxxxxxxxxxxxxxxxxxxxxxxxxxxxxxxx N
bxxxxxxxxxxxxxxxxxxxxxxxxxxxxxxxx O
bxxxxxxxxxxxxxxxxxxxxxxxxxxxxxxxx P
bxxxxxxxxxxxxxxxxxxxxxxxxxxxxxxxx Q
b000 S
bxxxxxxxxxxxxxxxxxxxxxxxxxxxxxxxx Z
bxxx Y
bxxxxxxxxxxxxxxxxxxxxxxxxxxxxxxxx [
bxxxxxxxxxxxxxxxxxxxxxxxxxxxxxxxx A
bxxxxxxxxxxxxxxxxxxxxxxxxxxxxxxxx B
bxxxxxxxxxxxxxxxxxxxxxxxxxxxxxxxx C
bxxxxxxxxxxxxxxxxxxxxxxxxxxxxxxxx D
b000 \
bxxx T
bxxxxxxxxxxxxxxxxxxxxxxxxxxxxxxxx K
bxxxxxxxxxxxxxxxxxxxxxxxxxxxxxxxx i
bxxxxxxxxxxxxxxxxxxxxxxxxxxxxxxxx j
bxxxxxxxxxxxxxxxxxxxxxxxxxxxxxxxx `
bxxxxxxxxxxxxxxxxxxxxxxxxxxxxxxxx G
bxxxxxxxxxxxxxxxxxxxxxxxxxxxxxxxx m
bxxxxxxxxxxxxxxxxxxxxxxxxxxxxxxxx n
bxxx J
bxxx g
bxxx h
bxxx _
bxxxxxxxxxxxxxxxxxxxxxxxxxxxxxxxx L
bxxxxxxxxxxxxxxxxxxxxxxxxxxxxxxxx k
bxxxxxxxxxxxxxxxxxxxxxxxxxxxxxxxx l
bxxxxxxxxxxxxxxxxxxxxxxxxxxxxxxxx a
b000 F
0$
04
03
06
x-
x.
05
b00 <
b00000000000000000000000000000000 9
b00000000000000000000000000000000 :
bxxxxxxxxxxxxxxxxxxxxxxxxxxxxxxxx ?
b00 >
b00000000000000000000000000000000 ;
07
18
x=
1&
x,
0%
bxxxxxxxxxxxxxxxxxxxxxxxxxxxxxxxx 1
bxxx /
bxxxxxxxxxxxxxxxxxxxxxxxxxxxxxxxx 0
$end
#5000
1!
1$
14
b00000000000000000000000000000000 N
b00000000000000000000000000000000 A
b00000000000000000000000000000000 O
b00000000000000000000000000000000 B
b00000000000000000000000000000000 P
b00000000000000000000000000000000 C
b00000000000000000000000000000000 Q
b00000000000000000000000000000000 D
0R
0E
b000 T
b00000000000000000000000000000000 Z
b00000000000000000000000000000000 K
0V
0I
b000 Y
b000 J
b00000000000000000000000000000000 [
b00000000000000000000000000000000 L
0W
0H
0X
0=
0,
b00000000000000000000000000000000 m
b00000000000000000000000000000000 n
b00000000000000000000000000000000 G
b00000000000000000000000000000000 ?
b00000000000000000000000000000000 *
1]
0U
b000 _
#10000
1"
15
0!
0$
04
0b
0e
b000 g
b00000000000000000000000000000000 i
b00000000000000000000000000000000 k
0c
0f
0.
b000 h
b000 /
b00000000000000000000000000000000 j
b00000000000000000000000000000000 1
b00000000000000000000000000000000 l
b00000000000000000000000000000000 0
0d
0-
#15000
1!
1$
14
#16000
1#
13
16
#20000
0"
05
0!
0$
04
#25000
1!
1$
14
bxxxxxxxxxxxxxxxxxxxxxxxxxxxxxxxx Z
bxxxxxxxxxxxxxxxxxxxxxxxxxxxxxxxx K
xV
xI
bxxxxxxxxxxxxxxxxxxxxxxxxxxxxxxxx [
bxxxxxxxxxxxxxxxxxxxxxxxxxxxxxxxx L
1X
1=
1,
#30000
1"
15
0!
0$
04
xe
bxxxxxxxxxxxxxxxxxxxxxxxxxxxxxxxx i
bxxxxxxxxxxxxxxxxxxxxxxxxxxxxxxxx k
#35000
1!
1$
14
#40000
0"
05
0!
0$
04
#45000
1!
1$
14
#50000
1"
15
0!
0$
04
xf
x.
bxxxxxxxxxxxxxxxxxxxxxxxxxxxxxxxx j
bxxxxxxxxxxxxxxxxxxxxxxxxxxxxxxxx 1
bxxxxxxxxxxxxxxxxxxxxxxxxxxxxxxxx l
bxxxxxxxxxxxxxxxxxxxxxxxxxxxxxxxx 0
#55000
1!
1$
14
#60000
0"
05
0!
0$
04
#65000
1!
1$
14
#70000
1"
15
0!
0$
04
#75000
1!
1$
14
#80000
0"
05
0!
0$
04
#85000
1!
1$
14
#90000
1"
15
0!
0$
04
#95000
1!
1$
14
#100000
0"
05
0!
0$
04
#105000
1!
1$
14
#110000
1"
15
0!
0$
04
#115000
1!
1$
14
#120000
0"
05
0!
0$
04
#125000
1!
1$
14
#130000
1"
15
0!
0$
04
#135000
1!
1$
14
#136000
1%
17
b10 '
b10 <
b10000000000000000000000001010100 )
b10000000000000000000000001010100 :
1M
1@
b001 S
b001 F
b001 \
#140000
0"
05
0!
0$
04
#145000
1!
1$
14
b10000000000000000000000001010100 N
b10000000000000000000000001010100 A
1R
1E
b001 T
0]
b00000000000000000000000000000000 a
b001 _
1^
b10000000000000000000000001010100 `
b100 \
#146000
b10000000000000000000000001010100 (
b10000000000000000000000001010100 9
b10000000000000000000000001010100 a
#150000
1"
15
0!
0$
04
#155000
1!
1$
14
b10000000000000000000000001010100 O
b10000000000000000000000001010100 B
b10000000000000000000000001010100 P
b10000000000000000000000001010100 C
b100 T
b10000000000000000000000001010100 Z
b10000000000000000000000001010100 K
1V
1I
b001 Y
b001 J
b10000000000000000000000001010100 [
b10000000000000000000000001010100 L
0X
0=
0,
1]
1U
b111 \
#156000
b00 '
b00 <
0M
0@
#160000
0"
05
0!
0$
04
#165000
1!
1$
14
b10000000000000000000000001010100 Q
b10000000000000000000000001010100 D
b111 T
1W
1H
1X
1=
1,
b011 \
0]
0U
#170000
1"
15
0!
0$
04
1b
1e
b001 g
b10000000000000000000000001010100 i
b10000000000000000000000001010100 k
#175000
1!
1$
14
b011 T
0W
0H
0X
0=
0,
b110 \
1]
1U
#180000
0"
05
0!
0$
04
#185000
1!
1$
14
b110 T
1W
1H
1X
1=
1,
b000 \
0]
0U
b000 _
#190000
1"
15
0!
0$
04
1c
1f
1.
b001 h
b001 /
b10000000000000000000000001010100 j
b10000000000000000000000001010100 1
b10000000000000000000000001010100 l
b10000000000000000000000001010100 0
#195000
1!
1$
14
b000 T
b000 Y
b000 J
0W
0H
0X
0=
0,
1]
#200000
0"
05
0!
0$
04
#205000
1!
1$
14
1X
1=
1,
#210000
1"
15
0!
0$
04
0b
b000 g
1d
1-
#215000
1!
1$
14
#220000
0"
05
0!
0$
04
#225000
1!
1$
14
#230000
1"
15
0!
0$
04
0c
b000 h
b000 /
#235000
1!
1$
14
#240000
0"
05
0!
0$
04
#245000
1!
1$
14
#246000
b10 '
b10 <
b10000000000000000000000001011000 )
b10000000000000000000000001011000 :
1M
1@
b001 \
#250000
1"
15
0!
0$
04
0d
0-
#255000
1!
1$
14
b10000000000000000000000001011000 N
b10000000000000000000000001011000 A
b001 T
0]
b001 _
b10000000000000000000000001011000 `
b100 \
#256000
b10000000000000000000000001011000 (
b10000000000000000000000001011000 9
b10000000000000000000000001011000 a
#260000
0"
05
0!
0$
04
#265000
1!
1$
14
b10000000000000000000000001011000 O
b10000000000000000000000001011000 B
b10000000000000000000000001011000 P
b10000000000000000000000001011000 C
b100 T
b10000000000000000000000001011000 Z
b10000000000000000000000001011000 K
b001 Y
b001 J
b10000000000000000000000001011000 [
b10000000000000000000000001011000 L
0X
0=
0,
1]
1U
b111 \
#266000
b00 '
b00 <
0M
0@
#270000
1"
15
0!
0$
04
b001 g
b10000000000000000000000001011000 i
b10000000000000000000000001011000 k
#275000
1!
1$
14
b10000000000000000000000001011000 Q
b10000000000000000000000001011000 D
b111 T
1W
1H
1X
1=
1,
b011 \
0]
0U
#280000
0"
05
0!
0$
04
#285000
1!
1$
14
b011 T
0W
0H
0X
0=
0,
b110 \
1]
1U
#290000
1"
15
0!
0$
04
b001 h
b001 /
b10000000000000000000000001011000 j
b10000000000000000000000001011000 1
b10000000000000000000000001011000 l
b10000000000000000000000001011000 0
#295000
1!
1$
14
b110 T
1W
1H
1X
1=
1,
b000 \
0]
0U
b000 _
#300000
0"
05
0!
0$
04
#305000
1!
1$
14
b000 T
b000 Y
b000 J
0W
0H
0X
0=
0,
1]
#310000
1"
15
0!
0$
04
b000 g
#315000
1!
1$
14
1X
1=
1,
#320000
0"
05
0!
0$
04
#325000
1!
1$
14
#330000
1"
15
0!
0$
04
b000 h
b000 /
#335000
1!
1$
14
#340000
0"
05
0!
0$
04
#345000
1!
1$
14
#350000
1"
15
0!
0$
04
#355000
1!
1$
14
#356000
b10 '
b10 <
b10000000000000000000000001011100 )
b10000000000000000000000001011100 :
1M
1@
b001 \
#360000
0"
05
0!
0$
04
#365000
1!
1$
14
b10000000000000000000000001011100 N
b10000000000000000000000001011100 A
b001 T
0]
b001 _
b10000000000000000000000001011100 `
b100 \
#366000
b10000000000000000000000001011100 (
b10000000000000000000000001011100 9
b10000000000000000000000001011100 a
#370000
1"
15
0!
0$
04
#375000
1!
1$
14
b10000000000000000000000001011100 O
b10000000000000000000000001011100 B
b10000000000000000000000001011100 P
b10000000000000000000000001011100 C
b100 T
b10000000000000000000000001011100 Z
b10000000000000000000000001011100 K
b001 Y
b001 J
b10000000000000000000000001011100 [
b10000000000000000000000001011100 L
0X
0=
0,
1]
1U
b111 \
#376000
b00 '
b00 <
0M
0@
#380000
0"
05
0!
0$
04
#385000
1!
1$
14
b10000000000000000000000001011100 Q
b10000000000000000000000001011100 D
b111 T
1W
1H
1X
1=
1,
b011 \
0]
0U
#390000
1"
15
0!
0$
04
1b
b001 g
b10000000000000000000000001011100 i
b10000000000000000000000001011100 k
#395000
1!
1$
14
b011 T
0W
0H
0X
0=
0,
b110 \
1]
1U
#400000
0"
05
0!
0$
04
#405000
1!
1$
14
b110 T
1W
1H
1X
1=
1,
b000 \
0]
0U
b000 _
#410000
1"
15
0!
0$
04
1c
b001 h
b001 /
b10000000000000000000000001011100 j
b10000000000000000000000001011100 1
b10000000000000000000000001011100 l
b10000000000000000000000001011100 0
#415000
1!
1$
14
b000 T
b000 Y
b000 J
0W
0H
0X
0=
0,
1]
#420000
0"
05
0!
0$
04
#425000
1!
1$
14
1X
1=
1,
#430000
1"
15
0!
0$
04
0b
b000 g
1d
1-
#435000
1!
1$
14
#440000
0"
05
0!
0$
04
#445000
1!
1$
14
#450000
1"
15
0!
0$
04
0c
b000 h
b000 /
#455000
1!
1$
14
#460000
0"
05
0!
0$
04
#465000
1!
1$
14
#466000
0%
07
b10 '
b10 <
b10000000000000000000000010101010 )
b10000000000000000000000010101010 :
1M
1@
b010 \
0]
b001 _
0^
b10000000000000000000000010101010 `
#470000
1"
15
0!
0$
04
0d
0-
#475000
1!
1$
14
b10000000000000000000000010101010 N
b10000000000000000000000010101010 A
0R
0E
b010 T
b10000000000000000000000010101010 Z
b10000000000000000000000010101010 K
0V
0I
b001 Y
b001 J
0X
0=
0,
1]
1U
b101 \
#480000
0"
05
0!
0$
04
#485000
1!
1$
14
b10000000000000000000000010101010 O
b10000000000000000000000010101010 B
b101 T
1W
1H
1X
1=
1,
0]
0U
b010 \
#490000
1"
15
0!
0$
04
1b
0e
b001 g
b10000000000000000000000010101010 i
#495000
1!
1$
14
b010 T
0W
0H
0X
0=
0,
b101 \
1]
1U
#500000
0"
05
0!
0$
04
#505000
1!
1$
14
b101 T
1W
1H
1X
1=
1,
b010 \
0]
0U
#510000
1"
15
0!
0$
04
1c
0f
0.
b001 h
b001 /
b10000000000000000000000010101010 j
b10000000000000000000000010101010 1
b11001101010111100011100000111011 2
b11001101010111100011100000111011 ;
#515000
1!
1$
14
b010 T
0W
0H
0X
0=
0,
b11001101010111100011100000111011 m
b101 \
1]
1U
#520000
0"
05
0!
0$
04
#525000
1!
1$
14
b101 T
1W
1H
1X
1=
1,
b11001101010111100011100000111011 n
b11001101010111100011100000111011 G
b11001101010111100011100000111011 ?
b11001101010111100011100000111011 *
b010 \
0]
0U
#530000
1"
15
0!
0$
04
1d
1-
#535000
1!
1$
14
b010 T
0W
0H
0X
0=
0,
b101 \
1]
1U
#540000
0"
05
0!
0$
04
#545000
1!
1$
14
b101 T
1W
1H
1X
1=
1,
b010 \
0]
0U
#550000
1"
15
0!
0$
04
#555000
1!
1$
14
b010 T
0W
0H
0X
0=
0,
b101 \
1]
1U
#560000
0"
05
0!
0$
04
#565000
1!
1$
14
b101 T
1W
1H
1X
1=
1,
b010 \
0]
0U
#570000
1"
15
0!
0$
04
#575000
1!
1$
14
b010 T
0W
0H
0X
0=
0,
b101 \
1]
1U
#580000
0"
05
0!
0$
04
#585000
1!
1$
14
b101 T
1W
1H
1X
1=
1,
b010 \
0]
0U
#590000
1"
15
0!
0$
04
#595000
1!
1$
14
b010 T
0W
0H
0X
0=
0,
b101 \
1]
1U
#600000
0"
05
0!
0$
04
#605000
1!
1$
14
b101 T
1W
1H
1X
1=
1,
b010 \
0]
0U
#610000
1"
15
0!
0$
04
#615000
1!
1$
14
b010 T
0W
0H
0X
0=
0,
b101 \
1]
1U
#620000
0"
05
0!
0$
04
#625000
1!
1$
14
b101 T
1W
1H
1X
1=
1,
b010 \
0]
0U
#630000
1"
15
0!
0$
04
#635000
1!
1$
14
b010 T
0W
0H
0X
0=
0,
b101 \
1]
1U
#640000
0"
05
0!
0$
04
#645000
1!
1$
14
b101 T
1W
1H
1X
1=
1,
b010 \
0]
0U
#650000
1"
15
0!
0$
04
#655000
1!
1$
14
b010 T
0W
0H
0X
0=
0,
b101 \
1]
1U
#660000
0"
05
0!
0$
04
#665000
1!
1$
14
b101 T
1W
1H
1X
1=
1,
b010 \
0]
0U
#670000
1"
15
0!
0$
04
#675000
1!
1$
14
b010 T
0W
0H
0X
0=
0,
b101 \
1]
1U
#680000
0"
05
0!
0$
04
#685000
1!
1$
14
b101 T
1W
1H
1X
1=
1,
b010 \
0]
0U
#690000
1"
15
0!
0$
04
#695000
1!
1$
14
b010 T
0W
0H
0X
0=
0,
b101 \
1]
1U
#700000
0"
05
0!
0$
04
#705000
1!
1$
14
b101 T
1W
1H
1X
1=
1,
b010 \
0]
0U
#710000
1"
15
0!
0$
04
#715000
1!
1$
14
b010 T
0W
0H
0X
0=
0,
b101 \
1]
1U
#720000
0"
05
0!
0$
04
#725000
1!
1$
14
b101 T
1W
1H
1X
1=
1,
b010 \
0]
0U
#730000
1"
15
0!
0$
04
#735000
1!
1$
14
b010 T
0W
0H
0X
0=
0,
b101 \
1]
1U
#740000
0"
05
0!
0$
04
#745000
1!
1$
14
b101 T
1W
1H
1X
1=
1,
b010 \
0]
0U
#750000
1"
15
0!
0$
04
#755000
1!
1$
14
b010 T
0W
0H
0X
0=
0,
b101 \
1]
1U
#760000
0"
05
0!
0$
04
#765000
1!
1$
14
b101 T
1W
1H
1X
1=
1,
b010 \
0]
0U
#770000
1"
15
0!
0$
04
#775000
1!
1$
14
b010 T
0W
0H
0X
0=
0,
b101 \
1]
1U
#780000
0"
05
0!
0$
04
#785000
1!
1$
14
b101 T
1W
1H
1X
1=
1,
b010 \
0]
0U
#790000
1"
15
0!
0$
04
#795000
1!
1$
14
b010 T
0W
0H
0X
0=
0,
b101 \
1]
1U
#800000
0"
05
0!
0$
04
#805000
1!
1$
14
b101 T
1W
1H
1X
1=
1,
b010 \
0]
0U
#810000
1"
15
0!
0$
04
#815000
1!
1$
14
b010 T
0W
0H
0X
0=
0,
b101 \
1]
1U
#820000
0"
05
0!
0$
04
#825000
1!
1$
14
b101 T
1W
1H
1X
1=
1,
b010 \
0]
0U
#830000
1"
15
0!
0$
04
#835000
1!
1$
14
b010 T
0W
0H
0X
0=
0,
b101 \
1]
1U
#840000
0"
05
0!
0$
04
#845000
1!
1$
14
b101 T
1W
1H
1X
1=
1,
b010 \
0]
0U
#850000
1"
15
0!
0$
04
#855000
1!
1$
14
b010 T
0W
0H
0X
0=
0,
b101 \
1]
1U
#860000
0"
05
0!
0$
04
#865000
1!
1$
14
b101 T
1W
1H
1X
1=
1,
b010 \
0]
0U
#870000
1"
15
0!
0$
04
#875000
1!
1$
14
b010 T
0W
0H
0X
0=
0,
b101 \
1]
1U
#880000
0"
05
0!
0$
04
#885000
1!
1$
14
b101 T
1W
1H
1X
1=
1,
b010 \
0]
0U
#890000
1"
15
0!
0$
04
#895000
1!
1$
14
b010 T
0W
0H
0X
0=
0,
b101 \
1]
1U
#900000
0"
05
0!
0$
04
#905000
1!
1$
14
b101 T
1W
1H
1X
1=
1,
b010 \
0]
0U
#910000
1"
15
0!
0$
04
#915000
1!
1$
14
b010 T
0W
0H
0X
0=
0,
b101 \
1]
1U
#920000
0"
05
0!
0$
04
#925000
1!
1$
14
b101 T
1W
1H
1X
1=
1,
b010 \
0]
0U
#930000
1"
15
0!
0$
04
#935000
1!
1$
14
b010 T
0W
0H
0X
0=
0,
b101 \
1]
1U
#940000
0"
05
0!
0$
04
#945000
1!
1$
14
b101 T
1W
1H
1X
1=
1,
b010 \
0]
0U
#950000
1"
15
0!
0$
04
#955000
1!
1$
14
b010 T
0W
0H
0X
0=
0,
b101 \
1]
1U
#960000
0"
05
0!
0$
04
#965000
1!
1$
14
b101 T
1W
1H
1X
1=
1,
b010 \
0]
0U
#970000
1"
15
0!
0$
04
#975000
1!
1$
14
b010 T
0W
0H
0X
0=
0,
b101 \
1]
1U
#980000
0"
05
0!
0$
04
#985000
1!
1$
14
b101 T
1W
1H
1X
1=
1,
b010 \
0]
0U
#990000
1"
15
0!
0$
04
#995000
1!
1$
14
b010 T
0W
0H
0X
0=
0,
b101 \
1]
1U
#1000000
0"
05
0!
0$
04
#1005000
1!
1$
14
b101 T
1W
1H
1X
1=
1,
b010 \
0]
0U
#1010000
1"
15
0!
0$
04
#1015000
1!
1$
14
b010 T
0W
0H
0X
0=
0,
b101 \
1]
1U
#1020000
0"
05
0!
0$
04
#1025000
1!
1$
14
b101 T
1W
1H
1X
1=
1,
b010 \
0]
0U
#1030000
1"
15
0!
0$
04
#1035000
1!
1$
14
b010 T
0W
0H
0X
0=
0,
b101 \
1]
1U
#1040000
0"
05
0!
0$
04
#1045000
1!
1$
14
b101 T
1W
1H
1X
1=
1,
b010 \
0]
0U
#1050000
1"
15
0!
0$
04
#1055000
1!
1$
14
b010 T
0W
0H
0X
0=
0,
b101 \
1]
1U
#1060000
0"
05
0!
0$
04
#1065000
1!
1$
14
b101 T
1W
1H
1X
1=
1,
b010 \
0]
0U
#1070000
1"
15
0!
0$
04
#1075000
1!
1$
14
b010 T
0W
0H
0X
0=
0,
b101 \
1]
1U
#1080000
0"
05
0!
0$
04
#1085000
1!
1$
14
b101 T
1W
1H
1X
1=
1,
b010 \
0]
0U
#1090000
1"
15
0!
0$
04
#1095000
1!
1$
14
b010 T
0W
0H
0X
0=
0,
b101 \
1]
1U
#1100000
0"
05
0!
0$
04
#1105000
1!
1$
14
b101 T
1W
1H
1X
1=
1,
b010 \
0]
0U
#1110000
1"
15
0!
0$
04
#1115000
1!
1$
14
b010 T
0W
0H
0X
0=
0,
b101 \
1]
1U
#1120000
0"
05
0!
0$
04
#1125000
1!
1$
14
b101 T
1W
1H
1X
1=
1,
b010 \
0]
0U
#1130000
1"
15
0!
0$
04
#1135000
1!
1$
14
b010 T
0W
0H
0X
0=
0,
b101 \
1]
1U
#1140000
0"
05
0!
0$
04
#1145000
1!
1$
14
b101 T
1W
1H
1X
1=
1,
b010 \
0]
0U
#1150000
1"
15
0!
0$
04
#1155000
1!
1$
14
b010 T
0W
0H
0X
0=
0,
b101 \
1]
1U
#1160000
0"
05
0!
0$
04
#1165000
1!
1$
14
b101 T
1W
1H
1X
1=
1,
b010 \
0]
0U
#1170000
1"
15
0!
0$
04
#1175000
1!
1$
14
b010 T
0W
0H
0X
0=
0,
b101 \
1]
1U
#1180000
0"
05
0!
0$
04
#1185000
1!
1$
14
b101 T
1W
1H
1X
1=
1,
b010 \
0]
0U
#1190000
1"
15
0!
0$
04
#1195000
1!
1$
14
b010 T
0W
0H
0X
0=
0,
b101 \
1]
1U
#1200000
0"
05
0!
0$
04
#1205000
1!
1$
14
b101 T
1W
1H
1X
1=
1,
b010 \
0]
0U
#1210000
1"
15
0!
0$
04
#1215000
1!
1$
14
b010 T
0W
0H
0X
0=
0,
b101 \
1]
1U
#1220000
0"
05
0!
0$
04
#1225000
1!
1$
14
b101 T
1W
1H
1X
1=
1,
b010 \
0]
0U
#1230000
1"
15
0!
0$
04
#1235000
1!
1$
14
b010 T
0W
0H
0X
0=
0,
b101 \
1]
1U
#1240000
0"
05
0!
0$
04
#1245000
1!
1$
14
b101 T
1W
1H
1X
1=
1,
b010 \
0]
0U
#1250000
1"
15
0!
0$
04
#1255000
1!
1$
14
b010 T
0W
0H
0X
0=
0,
b101 \
1]
1U
#1260000
0"
05
0!
0$
04
#1265000
1!
1$
14
b101 T
1W
1H
1X
1=
1,
b010 \
0]
0U
#1270000
1"
15
0!
0$
04
#1275000
1!
1$
14
b010 T
0W
0H
0X
0=
0,
b101 \
1]
1U
#1280000
0"
05
0!
0$
04
#1285000
1!
1$
14
b101 T
1W
1H
1X
1=
1,
b010 \
0]
0U
#1290000
1"
15
0!
0$
04
#1295000
1!
1$
14
b010 T
0W
0H
0X
0=
0,
b101 \
1]
1U
#1300000
0"
05
0!
0$
04
#1305000
1!
1$
14
b101 T
1W
1H
1X
1=
1,
b010 \
0]
0U
#1310000
1"
15
0!
0$
04
#1315000
1!
1$
14
b010 T
0W
0H
0X
0=
0,
b101 \
1]
1U
