AHB2APB_Brdg_MS2_Class/tb_class_top_checker.vcd
$date
	Wed Feb 18 17:31:05 2026
$end

$version
	Synopsys VCS version L-2016.06-SP2_Full64
$end

$timescale
	1ps
$end

$comment Csum: 1 909c72652b4507c4 $end


$scope module ahb_apb_top $end
$var reg 1 ! Hclk $end
$var reg 1 " Pclk $end
$var reg 1 # resetn $end

$scope begin unnamed$$_vcs_2 $end
$upscope $end


$scope begin unnamed$$_vcs_0 $end
$upscope $end


$scope begin unnamed$$_vcs_1 $end
$upscope $end


$scope begin unnamed$$_vcs_3 $end
$upscope $end


$scope begin unnamed$$_vcs_4 $end
$upscope $end


$scope module bfm $end
$var wire 1 $ clk $end
$var wire 1 % Pclk $end
$var reg 1 & Hwrite $end
$var reg 1 ' Hreadyin $end
$var reg 2 ( Htrans [1:0] $end
$var reg 32 ) Hwdata [31:0] $end
$var reg 32 * Haddr [31:0] $end
$var reg 32 + Hrdata [31:0] $end
$var reg 2 , Hresp [1:0] $end
$var reg 1 - Hreadyout $end
$var wire 1 . Penable $end
$var wire 1 / Pwrite $end
$var wire 3 0 Pselx [2:0] $end
$var wire 32 1 Pwdata [31:0] $end
$var wire 32 2 Paddr [31:0] $end
$var reg 32 3 Prdata [31:0] $end
$var wire 1 4 resetn $end
$upscope $end


$scope module dut $end
$var wire 1 5 Hclk $end
$var wire 1 6 Pclk $end
$var wire 1 7 Hresetn $end
$var wire 1 8 Hwrite $end
$var wire 1 9 Hreadyin $end
$var wire 32 : Hwdata [31:0] $end
$var wire 32 ; Haddr [31:0] $end
$var wire 32 < Prdata [31:0] $end
$var wire 2 = Htrans [1:0] $end
$var wire 1 . Penable $end
$var wire 1 / Pwrite $end
$var wire 1 > Hreadyout $end
$var wire 2 ? Hresp [1:0] $end
$var wire 3 0 Pselx [2:0] $end
$var wire 32 2 Paddr [31:0] $end
$var wire 32 1 Pwdata [31:0] $end
$var wire 32 @ Hrdata [31:0] $end
$var wire 1 A valid $end
$var wire 32 B Haddr1 [31:0] $end
$var wire 32 C Haddr2 [31:0] $end
$var wire 32 D Hwdata1 [31:0] $end
$var wire 32 E Hwdata2 [31:0] $end
$var wire 1 F Hwritereg $end
$var wire 3 G tempselx [2:0] $end
$var wire 32 H Prdata_hclk [31:0] $end
$var wire 1 I Penable_hclk $end
$var wire 1 J Pwrite_hclk $end
$var wire 3 K Pselx_hclk [2:0] $end
$var wire 32 L Paddr_hclk [31:0] $end
$var wire 32 M Pwdata_hclk [31:0] $end

$scope module AHBSlave $end
$var wire 1 5 Hclk $end
$var wire 1 7 Hresetn $end
$var wire 1 8 Hwrite $end
$var wire 1 9 Hreadyin $end
$var wire 2 = Htrans [1:0] $end
$var wire 32 ; Haddr [31:0] $end
$var wire 32 : Hwdata [31:0] $end
$var wire 32 H Prdata [31:0] $end
$var reg 1 N valid $end
$var reg 32 O Haddr1 [31:0] $end
$var reg 32 P Haddr2 [31:0] $end
$var reg 32 Q Hwdata1 [31:0] $end
$var reg 32 R Hwdata2 [31:0] $end
$var wire 32 @ Hrdata [31:0] $end
$var reg 1 S Hwritereg $end
$var reg 3 T tempselx [2:0] $end
$var wire 2 ? Hresp [1:0] $end
$upscope $end


$scope module APBControl $end
$var wire 1 5 Hclk $end
$var wire 1 7 Hresetn $end
$var wire 1 A valid $end
$var wire 1 8 Hwrite $end
$var wire 1 F Hwritereg $end
$var wire 32 : Hwdata [31:0] $end
$var wire 32 ; Haddr [31:0] $end
$var wire 32 B Haddr1 [31:0] $end
$var wire 32 C Haddr2 [31:0] $end
$var wire 32 D Hwdata1 [31:0] $end
$var wire 32 E Hwdata2 [31:0] $end
$var wire 32 H Prdata [31:0] $end
$var wire 3 G tempselx [2:0] $end
$var reg 1 U Pwrite $end
$var reg 1 V Penable $end
$var reg 1 W Hreadyout $end
$var reg 3 X Pselx [2:0] $end
$var reg 32 Y Paddr [31:0] $end
$var reg 32 Z Pwdata [31:0] $end
$var reg 3 [ PRESENT_STATE [2:0] $end
$var reg 3 \ NEXT_STATE [2:0] $end
$var reg 1 ] Penable_temp $end
$var reg 1 ^ Hreadyout_temp $end
$var reg 1 _ Pwrite_temp $end
$var reg 3 ` Pselx_temp [2:0] $end
$var reg 32 a Paddr_temp [31:0] $end
$var reg 32 b Pwdata_temp [31:0] $end

$scope begin PRESENT_STATE_LOGIC $end
$upscope $end


$scope begin NEXT_STATE_LOGIC $end
$upscope $end


$scope begin OUTPUT_COMBINATIONAL_LOGIC $end

$scope begin IDLE_TO_READ $end
$upscope $end


$scope begin IDLE_TO_WWAIT $end
$upscope $end


$scope begin IDLE_TO_IDLE $end
$upscope $end


$scope begin WAIT_TO_WRITE $end
$upscope $end


$scope begin WAIT_TO_WRITEP $end
$upscope $end


$scope begin READ_TO_RENABLE $end
$upscope $end


$scope begin WRITE_TO_WENABLE $end
$upscope $end


$scope begin WRITE_TO_WENABLEP $end
$upscope $end


$scope begin WRITEP_TO_WENABLEP $end
$upscope $end


$scope begin RENABLE_TO_READ $end
$upscope $end


$scope begin RENABLE_TO_WWAIT $end
$upscope $end


$scope begin RENABLE_TO_IDLE $end
$upscope $end


$scope begin WENABLEP_TO_WRITEP $end
$upscope $end


$scope begin WENABLEP_TO_WRITE_OR_READ $end
$upscope $end


$scope begin WENABLE_TO_IDLE $end
$upscope $end


$scope begin WENABLE_TO_WAIT_OR_READ $end
$upscope $end

$upscope $end

$upscope $end


$scope module CDC $end
$var wire 1 5 Hclk $end
$var wire 1 6 Pclk $end
$var wire 1 7 Hresetn $end
$var wire 1 I Penable_hclk $end
$var wire 1 J Pwrite_hclk $end
$var wire 3 K Pselx_hclk [2:0] $end
$var wire 32 L Paddr_hclk [31:0] $end
$var wire 32 M Pwdata_hclk [31:0] $end
$var wire 1 . Penable_pclk $end
$var wire 1 / Pwrite_pclk $end
$var wire 3 0 Pselx_pclk [2:0] $end
$var wire 32 2 Paddr_pclk [31:0] $end
$var wire 32 1 Pwdata_pclk [31:0] $end
$var wire 32 < Prdata_pclk [31:0] $end
$var wire 32 H Prdata_hclk [31:0] $end
$var reg 1 c Penable_sync1 $end
$var reg 1 d Penable_sync2 $end
$var reg 1 e Pwrite_sync1 $end
$var reg 1 f Pwrite_sync2 $end
$var reg 3 g Pselx_sync1 [2:0] $end
$var reg 3 h Pselx_sync2 [2:0] $end
$var reg 32 i Paddr_sync1 [31:0] $end
$var reg 32 j Paddr_sync2 [31:0] $end
$var reg 32 k Pwdata_sync1 [31:0] $end
$var reg 32 l Pwdata_sync2 [31:0] $end
$var reg 32 m Prdata_sync1 [31:0] $end
$var reg 32 n Prdata_sync2 [31:0] $end
$upscope $end

$upscope $end

$upscope $end

$enddefinitions $end

#0
$dumpvars
0!
0"
0#
b00000000000000000000000000000000 3
b00 ,
bxxxxxxxxxxxxxxxxxxxxxxxxxxxxxxxx +
b00000000000000000000000000000000 *
b00000000000000000000000000000000 )
b00 (
xS
0N
xW
xV
xU
x^
xF
xI
xc
xd
x]
xJ
xe
xf
x_
0A
bxxxxxxxxxxxxxxxxxxxxxxxxxxxxxxxx O
bxxxxxxxxxxxxxxxxxxxxxxxxxxxxxxxx P
bxxxxxxxxxxxxxxxxxxxxxxxxxxxxxxxx Q
bxxxxxxxxxxxxxxxxxxxxxxxxxxxxxxxx R
b000 T
bxxxxxxxxxxxxxxxxxxxxxxxxxxxxxxxx Y
bxxx X
bxxxxxxxxxxxxxxxxxxxxxxxxxxxxxxxx Z
bxxxxxxxxxxxxxxxxxxxxxxxxxxxxxxxx B
bxxxxxxxxxxxxxxxxxxxxxxxxxxxxxxxx C
bxxxxxxxxxxxxxxxxxxxxxxxxxxxxxxxx D
bxxxxxxxxxxxxxxxxxxxxxxxxxxxxxxxx E
b000 \
bxxx [
bxxxxxxxxxxxxxxxxxxxxxxxxxxxxxxxx L
bxxxxxxxxxxxxxxxxxxxxxxxxxxxxxxxx i
bxxxxxxxxxxxxxxxxxxxxxxxxxxxxxxxx j
bxxxxxxxxxxxxxxxxxxxxxxxxxxxxxxxx a
bxxxxxxxxxxxxxxxxxxxxxxxxxxxxxxxx H
bxxxxxxxxxxxxxxxxxxxxxxxxxxxxxxxx m
bxxxxxxxxxxxxxxxxxxxxxxxxxxxxxxxx n
bxxx K
bxxx g
bxxx h
bxxx `
bxxxxxxxxxxxxxxxxxxxxxxxxxxxxxxxx M
bxxxxxxxxxxxxxxxxxxxxxxxxxxxxxxxx k
bxxxxxxxxxxxxxxxxxxxxxxxxxxxxxxxx l
bxxxxxxxxxxxxxxxxxxxxxxxxxxxxxxxx b
b000 G
0$
05
04
07
0%
06
x.
x/
b00 =
b00000000000000000000000000000000 :
b00000000000000000000000000000000 ;
bxxxxxxxxxxxxxxxxxxxxxxxxxxxxxxxx @
b00 ?
b00000000000000000000000000000000 <
08
19
x>
1'
x-
0&
bxxxxxxxxxxxxxxxxxxxxxxxxxxxxxxxx 2
bxxx 0
bxxxxxxxxxxxxxxxxxxxxxxxxxxxxxxxx 1
$end
#5000
1!
1$
15
b00000000000000000000000000000000 O
b00000000000000000000000000000000 B
b00000000000000000000000000000000 P
b00000000000000000000000000000000 C
b00000000000000000000000000000000 Q
b00000000000000000000000000000000 D
b00000000000000000000000000000000 R
b00000000000000000000000000000000 E
0S
0F
b000 [
b00000000000000000000000000000000 Y
b00000000000000000000000000000000 L
0U
0J
b000 X
b000 K
b00000000000000000000000000000000 Z
b00000000000000000000000000000000 M
0V
0I
0W
0>
0-
b00000000000000000000000000000000 m
b00000000000000000000000000000000 n
b00000000000000000000000000000000 H
b00000000000000000000000000000000 @
b00000000000000000000000000000000 +
1^
0]
b000 `
#10000
1"
1%
16
0!
0$
05
0c
0e
b000 g
b00000000000000000000000000000000 i
b00000000000000000000000000000000 k
0d
0.
0f
0/
b000 h
b000 0
b00000000000000000000000000000000 j
b00000000000000000000000000000000 2
b00000000000000000000000000000000 l
b00000000000000000000000000000000 1
#15000
1!
1$
15
#16000
1#
14
17
#20000
0"
0%
06
0!
0$
05
#25000
1!
1$
15
bxxxxxxxxxxxxxxxxxxxxxxxxxxxxxxxx Y
bxxxxxxxxxxxxxxxxxxxxxxxxxxxxxxxx L
xU
xJ
bxxxxxxxxxxxxxxxxxxxxxxxxxxxxxxxx Z
bxxxxxxxxxxxxxxxxxxxxxxxxxxxxxxxx M
1W
1>
1-
#30000
1"
1%
16
0!
0$
05
xe
bxxxxxxxxxxxxxxxxxxxxxxxxxxxxxxxx i
bxxxxxxxxxxxxxxxxxxxxxxxxxxxxxxxx k
#35000
1!
1$
15
#40000
0"
0%
06
0!
0$
05
#45000
1!
1$
15
#50000
1"
1%
16
0!
0$
05
xf
x/
bxxxxxxxxxxxxxxxxxxxxxxxxxxxxxxxx j
bxxxxxxxxxxxxxxxxxxxxxxxxxxxxxxxx 2
bxxxxxxxxxxxxxxxxxxxxxxxxxxxxxxxx l
bxxxxxxxxxxxxxxxxxxxxxxxxxxxxxxxx 1
#55000
1!
1$
15
#60000
0"
0%
06
0!
0$
05
#65000
1!
1$
15
#70000
1"
1%
16
0!
0$
05
#75000
1!
1$
15
#80000
0"
0%
06
0!
0$
05
#85000
1!
1$
15
#90000
1"
1%
16
0!
0$
05
#95000
1!
1$
15
#100000
0"
0%
06
0!
0$
05
#105000
1!
1$
15
#110000
1"
1%
16
0!
0$
05
#115000
1!
1$
15
#120000
0"
0%
06
0!
0$
05
#125000
1!
1$
15
#130000
1"
1%
16
0!
0$
05
#135000
1!
1$
15
#136000
1&
18
b10 (
b10 =
b10000000000000000000000001010100 *
b10000000000000000000000001010100 ;
1N
1A
b001 T
b001 G
b001 \
#140000
0"
0%
06
0!
0$
05
#145000
1!
1$
15
b10000000000000000000000001010100 O
b10000000000000000000000001010100 B
1S
1F
b001 [
0^
b00000000000000000000000000000000 b
b001 `
1_
b10000000000000000000000001010100 a
b100 \
#146000
b10000000000000000000000001010100 )
b10000000000000000000000001010100 :
b10000000000000000000000001010100 b
#150000
1"
1%
16
0!
0$
05
#155000
1!
1$
15
b10000000000000000000000001010100 P
b10000000000000000000000001010100 C
b10000000000000000000000001010100 Q
b10000000000000000000000001010100 D
b100 [
b10000000000000000000000001010100 Y
b10000000000000000000000001010100 L
1U
1J
b001 X
b001 K
b10000000000000000000000001010100 Z
b10000000000000000000000001010100 M
0W
0>
0-
1^
1]
b111 \
#156000
b00 (
b00 =
0N
0A
#160000
0"
0%
06
0!
0$
05
#165000
1!
1$
15
b10000000000000000000000001010100 R
b10000000000000000000000001010100 E
b111 [
1V
1I
1W
1>
1-
b011 \
0^
0]
#170000
1"
1%
16
0!
0$
05
1c
1e
b001 g
b10000000000000000000000001010100 i
b10000000000000000000000001010100 k
#175000
1!
1$
15
b011 [
0V
0I
0W
0>
0-
b110 \
1^
1]
#176000
b10 (
b10 =
b10000000000000000000000001011000 *
b10000000000000000000000001011000 ;
1N
1A
b111 \
#180000
0"
0%
06
0!
0$
05
#185000
1!
1$
15
b10000000000000000000000001011000 O
b10000000000000000000000001011000 B
b111 [
1V
1I
1W
1>
1-
0^
0]
b100 \
#190000
1"
1%
16
0!
0$
05
1d
1.
1f
1/
b001 h
b001 0
b10000000000000000000000001010100 j
b10000000000000000000000001010100 2
b10000000000000000000000001010100 l
b10000000000000000000000001010100 1
#195000
1!
1$
15
b10000000000000000000000001011000 P
b10000000000000000000000001011000 C
b100 [
0V
0I
0W
0>
0-
1^
1]
b111 \
#196000
b10000000000000000000000001011000 )
b10000000000000000000000001011000 :
#200000
0"
0%
06
0!
0$
05
#205000
1!
1$
15
b10000000000000000000000001011000 Q
b10000000000000000000000001011000 D
b111 [
1V
1I
1W
1>
1-
b100 \
0^
0]
b10000000000000000000000001011000 b
b10000000000000000000000001011000 a
#210000
1"
1%
16
0!
0$
05
#215000
1!
1$
15
b10000000000000000000000001011000 R
b10000000000000000000000001011000 E
b100 [
b10000000000000000000000001011000 Y
b10000000000000000000000001011000 L
b10000000000000000000000001011000 Z
b10000000000000000000000001011000 M
0V
0I
0W
0>
0-
b111 \
1^
1]
#216000
b00 (
b00 =
0N
0A
#220000
0"
0%
06
0!
0$
05
#225000
1!
1$
15
b111 [
1V
1I
1W
1>
1-
b011 \
0^
0]
#230000
1"
1%
16
0!
0$
05
b10000000000000000000000001011000 i
b10000000000000000000000001011000 k
#235000
1!
1$
15
b011 [
0V
0I
0W
0>
0-
b110 \
1^
1]
#236000
b10 (
b10 =
b10000000000000000000000001011100 *
b10000000000000000000000001011100 ;
1N
1A
b111 \
#240000
0"
0%
06
0!
0$
05
#245000
1!
1$
15
b10000000000000000000000001011100 O
b10000000000000000000000001011100 B
b111 [
1V
1I
1W
1>
1-
0^
0]
b100 \
#250000
1"
1%
16
0!
0$
05
b10000000000000000000000001011000 j
b10000000000000000000000001011000 2
b10000000000000000000000001011000 l
b10000000000000000000000001011000 1
#255000
1!
1$
15
b10000000000000000000000001011100 P
b10000000000000000000000001011100 C
b100 [
0V
0I
0W
0>
0-
1^
1]
b111 \
#256000
b10000000000000000000000001011100 )
b10000000000000000000000001011100 :
#260000
0"
0%
06
0!
0$
05
#265000
1!
1$
15
b10000000000000000000000001011100 Q
b10000000000000000000000001011100 D
b111 [
1V
1I
1W
1>
1-
b100 \
0^
0]
b10000000000000000000000001011100 b
b10000000000000000000000001011100 a
#270000
1"
1%
16
0!
0$
05
#275000
1!
1$
15
b10000000000000000000000001011100 R
b10000000000000000000000001011100 E
b100 [
b10000000000000000000000001011100 Y
b10000000000000000000000001011100 L
b10000000000000000000000001011100 Z
b10000000000000000000000001011100 M
0V
0I
0W
0>
0-
b111 \
1^
1]
#276000
b00 (
b00 =
0N
0A
#280000
0"
0%
06
0!
0$
05
#285000
1!
1$
15
b111 [
1V
1I
1W
1>
1-
b011 \
0^
0]
#290000
1"
1%
16
0!
0$
05
b10000000000000000000000001011100 i
b10000000000000000000000001011100 k
#295000
1!
1$
15
b011 [
0V
0I
0W
0>
0-
b110 \
1^
1]
#296000
0&
08
b10 (
b10 =
b10000000000000000000000010101010 *
b10000000000000000000000010101010 ;
1N
1A
b111 \
#300000
0"
0%
06
0!
0$
05
#305000
1!
1$
15
b10000000000000000000000010101010 O
b10000000000000000000000010101010 B
0S
0F
b111 [
1V
1I
1W
1>
1-
0^
0]
0_
b010 \
#310000
1"
1%
16
0!
0$
05
b10000000000000000000000001011100 j
b10000000000000000000000001011100 2
b10000000000000000000000001011100 l
b10000000000000000000000001011100 1
#315000
1!
1$
15
b10000000000000000000000010101010 P
b10000000000000000000000010101010 C
b010 [
0U
0J
0V
0I
0W
0>
0-
1^
1]
b101 \
#320000
0"
0%
06
0!
0$
05
#325000
1!
1$
15
b101 [
1V
1I
1W
1>
1-
b010 \
0^
0]
b10000000000000000000000010101010 a
#330000
1"
1%
16
0!
0$
05
0e
#335000
1!
1$
15
b010 [
b10000000000000000000000010101010 Y
b10000000000000000000000010101010 L
0V
0I
0W
0>
0-
b101 \
1^
1]
#340000
0"
0%
06
0!
0$
05
#345000
1!
1$
15
b101 [
1V
1I
1W
1>
1-
b010 \
0^
0]
#350000
1"
1%
16
0!
0$
05
b10000000000000000000000010101010 i
0f
0/
#355000
1!
1$
15
b010 [
0V
0I
0W
0>
0-
b101 \
1^
1]
#360000
0"
0%
06
0!
0$
05
#365000
1!
1$
15
b101 [
1V
1I
1W
1>
1-
b010 \
0^
0]
#370000
1"
1%
16
0!
0$
05
b10000000000000000000000001011100 3
b10000000000000000000000001011100 <
b10000000000000000000000010101010 j
b10000000000000000000000010101010 2
#375000
1!
1$
15
b010 [
0V
0I
0W
0>
0-
b10000000000000000000000001011100 m
b101 \
1^
1]
#380000
0"
0%
06
0!
0$
05
#385000
1!
1$
15
b101 [
1V
1I
1W
1>
1-
b10000000000000000000000001011100 n
b10000000000000000000000001011100 H
b10000000000000000000000001011100 @
b10000000000000000000000001011100 +
b010 \
0^
0]
#390000
1"
1%
16
0!
0$
05
b00000000101010101111111101010101 3
b00000000101010101111111101010101 <
#395000
1!
1$
15
b010 [
0V
0I
0W
0>
0-
b00000000101010101111111101010101 m
b101 \
1^
1]
#400000
0"
0%
06
0!
0$
05
#405000
1!
1$
15
b101 [
1V
1I
1W
1>
1-
b00000000101010101111111101010101 n
b00000000101010101111111101010101 H
b00000000101010101111111101010101 @
b00000000101010101111111101010101 +
b010 \
0^
0]
#410000
1"
1%
16
0!
0$
05
#415000
1!
1$
15
b010 [
0V
0I
0W
0>
0-
b101 \
1^
1]
#420000
0"
0%
06
0!
0$
05
#425000
1!
1$
15
b101 [
1V
1I
1W
1>
1-
b010 \
0^
0]
#430000
1"
1%
16
0!
0$
05
#435000
1!
1$
15
b010 [
0V
0I
0W
0>
0-
b101 \
1^
1]
#440000
0"
0%
06
0!
0$
05
#445000
1!
1$
15
b101 [
1V
1I
1W
1>
1-
b010 \
0^
0]
#450000
1"
1%
16
0!
0$
05
#455000
1!
1$
15
b010 [
0V
0I
0W
0>
0-
b101 \
1^
1]
#460000
0"
0%
06
0!
0$
05
#465000
1!
1$
15
b101 [
1V
1I
1W
1>
1-
b010 \
0^
0]
#470000
1"
1%
16
0!
0$
05
#475000
1!
1$
15
b010 [
0V
0I
0W
0>
0-
b101 \
1^
1]
#480000
0"
0%
06
0!
0$
05
#485000
1!
1$
15
b101 [
1V
1I
1W
1>
1-
b010 \
0^
0]
#490000
1"
1%
16
0!
0$
05
#495000
1!
1$
15
b010 [
0V
0I
0W
0>
0-
b101 \
1^
1]
#500000
0"
0%
06
0!
0$
05
#505000
1!
1$
15
b101 [
1V
1I
1W
1>
1-
b010 \
0^
0]
#510000
1"
1%
16
0!
0$
05
#515000
1!
1$
15
b010 [
0V
0I
0W
0>
0-
b101 \
1^
1]
#520000
0"
0%
06
0!
0$
05
#525000
1!
1$
15
b101 [
1V
1I
1W
1>
1-
b010 \
0^
0]
#530000
1"
1%
16
0!
0$
05
#535000
1!
1$
15
b010 [
0V
0I
0W
0>
0-
b101 \
1^
1]
#540000
0"
0%
06
0!
0$
05
#545000
1!
1$
15
b101 [
1V
1I
1W
1>
1-
b010 \
0^
0]
#550000
1"
1%
16
0!
0$
05
#555000
1!
1$
15
b010 [
0V
0I
0W
0>
0-
b101 \
1^
1]
#560000
0"
0%
06
0!
0$
05
#565000
1!
1$
15
b101 [
1V
1I
1W
1>
1-
b010 \
0^
0]
#570000
1"
1%
16
0!
0$
05
#575000
1!
1$
15
b010 [
0V
0I
0W
0>
0-
b101 \
1^
1]
#580000
0"
0%
06
0!
0$
05
#585000
1!
1$
15
b101 [
1V
1I
1W
1>
1-
b010 \
0^
0]
#590000
1"
1%
16
0!
0$
05
#595000
1!
1$
15
b010 [
0V
0I
0W
0>
0-
b101 \
1^
1]
#600000
0"
0%
06
0!
0$
05
#605000
1!
1$
15
b101 [
1V
1I
1W
1>
1-
b010 \
0^
0]
#610000
1"
1%
16
0!
0$
05
#615000
1!
1$
15
b010 [
0V
0I
0W
0>
0-
b101 \
1^
1]
#620000
0"
0%
06
0!
0$
05
#625000
1!
1$
15
b101 [
1V
1I
1W
1>
1-
b010 \
0^
0]
#630000
1"
1%
16
0!
0$
05
#635000
1!
1$
15
b010 [
0V
0I
0W
0>
0-
b101 \
1^
1]
#640000
0"
0%
06
0!
0$
05
#645000
1!
1$
15
b101 [
1V
1I
1W
1>
1-
b010 \
0^
0]
#650000
1"
1%
16
0!
0$
05
#655000
1!
1$
15
b010 [
0V
0I
0W
0>
0-
b101 \
1^
1]
#660000
0"
0%
06
0!
0$
05
#665000
1!
1$
15
b101 [
1V
1I
1W
1>
1-
b010 \
0^
0]
#670000
1"
1%
16
0!
0$
05
#675000
1!
1$
15
b010 [
0V
0I
0W
0>
0-
b101 \
1^
1]
#680000
0"
0%
06
0!
0$
05
#685000
1!
1$
15
b101 [
1V
1I
1W
1>
1-
b010 \
0^
0]
#690000
1"
1%
16
0!
0$
05
#695000
1!
1$
15
b010 [
0V
0I
0W
0>
0-
b101 \
1^
1]
#700000
0"
0%
06
0!
0$
05
#705000
1!
1$
15
b101 [
1V
1I
1W
1>
1-
b010 \
0^
0]
#710000
1"
1%
16
0!
0$
05
#715000
1!
1$
15
b010 [
0V
0I
0W
0>
0-
b101 \
1^
1]
#720000
0"
0%
06
0!
0$
05
#725000
1!
1$
15
b101 [
1V
1I
1W
1>
1-
b010 \
0^
0]
#730000
1"
1%
16
0!
0$
05
#735000
1!
1$
15
b010 [
0V
0I
0W
0>
0-
b101 \
1^
1]
#740000
0"
0%
06
0!
0$
05
#745000
1!
1$
15
b101 [
1V
1I
1W
1>
1-
b010 \
0^
0]
#750000
1"
1%
16
0!
0$
05
#755000
1!
1$
15
b010 [
0V
0I
0W
0>
0-
b101 \
1^
1]
#760000
0"
0%
06
0!
0$
05
#765000
1!
1$
15
b101 [
1V
1I
1W
1>
1-
b010 \
0^
0]
#770000
1"
1%
16
0!
0$
05
#775000
1!
1$
15
b010 [
0V
0I
0W
0>
0-
b101 \
1^
1]
#780000
0"
0%
06
0!
0$
05
#785000
1!
1$
15
b101 [
1V
1I
1W
1>
1-
b010 \
0^
0]
#790000
1"
1%
16
0!
0$
05
#795000
1!
1$
15
b010 [
0V
0I
0W
0>
0-
b101 \
1^
1]
#800000
0"
0%
06
0!
0$
05
#805000
1!
1$
15
b101 [
1V
1I
1W
1>
1-
b010 \
0^
0]
#810000
1"
1%
16
0!
0$
05
#815000
1!
1$
15
b010 [
0V
0I
0W
0>
0-
b101 \
1^
1]
#820000
0"
0%
06
0!
0$
05
#825000
1!
1$
15
b101 [
1V
1I
1W
1>
1-
b010 \
0^
0]
#830000
1"
1%
16
0!
0$
05
#835000
1!
1$
15
b010 [
0V
0I
0W
0>
0-
b101 \
1^
1]
#840000
0"
0%
06
0!
0$
05
#845000
1!
1$
15
b101 [
1V
1I
1W
1>
1-
b010 \
0^
0]
#850000
1"
1%
16
0!
0$
05
#855000
1!
1$
15
b010 [
0V
0I
0W
0>
0-
b101 \
1^
1]
#860000
0"
0%
06
0!
0$
05
#865000
1!
1$
15
b101 [
1V
1I
1W
1>
1-
b010 \
0^
0]
#870000
1"
1%
16
0!
0$
05
#875000
1!
1$
15
b010 [
0V
0I
0W
0>
0-
b101 \
1^
1]
#880000
0"
0%
06
0!
0$
05
#885000
1!
1$
15
b101 [
1V
1I
1W
1>
1-
b010 \
0^
0]
#890000
1"
1%
16
0!
0$
05
#895000
1!
1$
15
b010 [
0V
0I
0W
0>
0-
b101 \
1^
1]
#900000
0"
0%
06
0!
0$
05
#905000
1!
1$
15
b101 [
1V
1I
1W
1>
1-
b010 \
0^
0]
#910000
1"
1%
16
0!
0$
05
#915000
1!
1$
15
b010 [
0V
0I
0W
0>
0-
b101 \
1^
1]
#920000
0"
0%
06
0!
0$
05
#925000
1!
1$
15
b101 [
1V
1I
1W
1>
1-
b010 \
0^
0]
#930000
1"
1%
16
0!
0$
05
#935000
1!
1$
15
b010 [
0V
0I
0W
0>
0-
b101 \
1^
1]
#940000
0"
0%
06
0!
0$
05
#945000
1!
1$
15
b101 [
1V
1I
1W
1>
1-
b010 \
0^
0]
#950000
1"
1%
16
0!
0$
05
#955000
1!
1$
15
b010 [
0V
0I
0W
0>
0-
b101 \
1^
1]
#960000
0"
0%
06
0!
0$
05
#965000
1!
1$
15
b101 [
1V
1I
1W
1>
1-
b010 \
0^
0]
#970000
1"
1%
16
0!
0$
05
#975000
1!
1$
15
b010 [
0V
0I
0W
0>
0-
b101 \
1^
1]
#980000
0"
0%
06
0!
0$
05
#985000
1!
1$
15
b101 [
1V
1I
1W
1>
1-
b010 \
0^
0]
#990000
1"
1%
16
0!
0$
05
#995000
1!
1$
15
b010 [
0V
0I
0W
0>
0-
b101 \
1^
1]
#1000000
0"
0%
06
0!
0$
05
#1005000
1!
1$
15
b101 [
1V
1I
1W
1>
1-
b010 \
0^
0]
#1010000
1"
1%
16
0!
0$
05
#1015000
1!
1$
15
b010 [
0V
0I
0W
0>
0-
b101 \
1^
1]
#1020000
0"
0%
06
0!
0$
05
#1025000
1!
1$
15
b101 [
1V
1I
1W
1>
1-
b010 \
0^
0]
#1030000
1"
1%
16
0!
0$
05
#1035000
1!
1$
15
b010 [
0V
0I
0W
0>
0-
b101 \
1^
1]
#1040000
0"
0%
06
0!
0$
05
#1045000
1!
1$
15
b101 [
1V
1I
1W
1>
1-
b010 \
0^
0]
#1050000
1"
1%
16
0!
0$
05
#1055000
1!
1$
15
b010 [
0V
0I
0W
0>
0-
b101 \
1^
1]
#1060000
0"
0%
06
0!
0$
05
#1065000
1!
1$
15
b101 [
1V
1I
1W
1>
1-
b010 \
0^
0]
#1070000
1"
1%
16
0!
0$
05
#1075000
1!
1$
15
b010 [
0V
0I
0W
0>
0-
b101 \
1^
1]
#1080000
0"
0%
06
0!
0$
05
#1085000
1!
1$
15
b101 [
1V
1I
1W
1>
1-
b010 \
0^
0]
#1090000
1"
1%
16
0!
0$
05
#1095000
1!
1$
15
b010 [
0V
0I
0W
0>
0-
b101 \
1^
1]
#1100000
0"
0%
06
0!
0$
05
#1105000
1!
1$
15
b101 [
1V
1I
1W
1>
1-
b010 \
0^
0]
#1110000
1"
1%
16
0!
0$
05
#1115000
1!
1$
15
b010 [
0V
0I
0W
0>
0-
b101 \
1^
1]
#1120000
0"
0%
06
0!
0$
05
#1125000
1!
1$
15
b101 [
1V
1I
1W
1>
1-
b010 \
0^
0]
#1130000
1"
1%
16
0!
0$
05
#1135000
1!
1$
15
b010 [
0V
0I
0W
0>
0-
b101 \
1^
1]
#1140000
0"
0%
06
0!
0$
05
#1145000
1!
1$
15
b101 [
1V
1I
1W
1>
1-
b010 \
0^
0]
#1150000
1"
1%
16
0!
0$
05
#1155000
1!
1$
15
b010 [
0V
0I
0W
0>
0-
b101 \
1^
1]
#1160000
0"
0%
06
0!
0$
05
#1165000
1!
1$
15
b101 [
1V
1I
1W
1>
1-
b010 \
0^
0]
#1170000
1"
1%
16
0!
0$
05
#1175000
1!
1$
15
b010 [
0V
0I
0W
0>
0-
b101 \
1^
1]
#1180000
0"
0%
06
0!
0$
05
#1185000
1!
1$
15
b101 [
1V
1I
1W
1>
1-
b010 \
0^
0]
#1190000
1"
1%
16
0!
0$
05
#1195000
1!
1$
15
b010 [
0V
0I
0W
0>
0-
b101 \
1^
1]
#1200000
0"
0%
06
0!
0$
05
#1205000
1!
1$
15
b101 [
1V
1I
1W
1>
1-
b010 \
0^
0]
#1210000
1"
1%
16
0!
0$
05
#1215000
1!
1$
15
b010 [
0V
0I
0W
0>
0-
b101 \
1^
1]
#1220000
0"
0%
06
0!
0$
05
#1225000
1!
1$
15
b101 [
1V
1I
1W
1>
1-
b010 \
0^
0]
#1230000
1"
1%
16
0!
0$
05
#1235000
1!
1$
15
b010 [
0V
0I
0W
0>
0-
b101 \
1^
1]
#1240000
0"
0%
06
0!
0$
05
#1245000
1!
1$
15
b101 [
1V
1I
1W
1>
1-
b010 \
0^
0]
#1250000
1"
1%
16
0!
0$
05
#1255000
1!
1$
15
b010 [
0V
0I
0W
0>
0-
b101 \
1^
1]
#1260000
0"
0%
06
0!
0$
05
#1265000
1!
1$
15
b101 [
1V
1I
1W
1>
1-
b010 \
0^
0]
#1270000
1"
1%
16
0!
0$
05
#1275000
1!
1$
15
b010 [
0V
0I
0W
0>
0-
b101 \
1^
1]
#1280000
0"
0%
06
0!
0$
05
#1285000
1!
1$
15
b101 [
1V
1I
1W
1>
1-
b010 \
0^
0]
#1290000
1"
1%
16
0!
0$
05
#1295000
1!
1$
15
b010 [
0V
0I
0W
0>
0-
b101 \
1^
1]
#1300000
0"
0%
06
0!
0$
05
#1305000
1!
1$
15
b101 [
1V
1I
1W
1>
1-
b010 \
0^
0]
#1310000
1"
1%
16
0!
0$
05
